70-20-84-01-1f-4e
08-2e-5f-02-fc-79
ac-16-2d-00-9c-11
64-31-50-34-47-63
d4-85-64-c2-00-a9
2c-27-d7-3f-5b-69
24-be-05-25-4c-97
08-2e-5f-0b-18-a5
4c-cc-6a-c2-bd-11
08-2e-5f-04-fb-47
00-19-99-66-cb-e0
64-31-50-35-80-15
70-20-84-01-1f-87
2c-41-38-8f-a7-d9
2c-27-d7-3f-8f-9f
64-31-50-31-9e-29
d4-85-64-bd-26-37
64-31-50-1b-86-fb
3c-d9-2b-6d-2f-88
d4-85-64-ba-45-e6
d8-d3-85-81-07-04
d4-85-64-c3-2d-5e
64-31-50-34-47-77
64-31-50-1c-cf-77
d8-d3-85-7b-64-3d
d8-d3-85-7f-31-4f
3c-d9-2b-6d-2f-8e
08-2e-5f-0b-57-71
2c-27-d7-3f-90-e8
d8-d3-85-7f-30-ef
78-ac-c0-bc-ad-c3
2c-27-d7-3f-8f-a4
08-2e-5f-25-14-18
d8-d3-85-7b-64-0c
d8-d3-85-7b-68-da
d8-d3-85-7f-31-a8
4c-cc-6a-c3-c0-a5
3c-d9-2b-73-5c-e5
70-20-84-01-1f-7c
3c-d9-2b-6d-2f-82
